Introduction to data analysis and visualization with R - 11 Two-way ANOVA and the Scheirer–Ray–Hare test
…
11  Two-way ANOVA and the Scheirer–Ray–Hare test

11.1 Two-way ANOVA

Chapter 10 discussed techniques for analyzing data which fall into multiple categories, but those categories are levels of a single factor. Here we go further and work with data classified by two independent factors.

A good example is provided by the built-in dataset ToothGrowth, which contains data on the tooth growth of Guinea pigs in response to receiving vitamin C.

library(tidyverse)

as_tibble(ToothGrowth)

# A tibble: 60 × 3
     len supp   dose
   <dbl> <fct> <dbl>
 1   4.2 VC      0.5
 2  11.5 VC      0.5
 3   7.3 VC      0.5
 4   5.8 VC      0.5
 5   6.4 VC      0.5
 6  10   VC      0.5
 7  11.2 VC      0.5
 8  11.2 VC      0.5
 9   5.2 VC      0.5
10   7   VC      0.5
# … with 50 more rows
…
