Introduction to data analysis and visualization with R - 4 Basic data manipulation
…
── Attaching packages ─────────────────────────────────────── tidyverse 1.3.2 ──
✔ ggplot2 3.4.0      ✔ purrr   0.3.5 
✔ tibble  3.1.8      ✔ dplyr   1.0.10
✔ tidyr   1.2.1      ✔ stringr 1.4.1 
✔ readr   2.1.3      ✔ forcats 0.5.2 
── Conflicts ────────────────────────────────────────── tidyverse_conflicts() ──
✖ dplyr::filter() masks stats::filter()
✖ dplyr::lag()    masks stats::lag()

As you can see from the message output above, the dplyr package is part of tidyverse, which gets loaded by default. It allows one to arrange and manipulate data efficiently. The basic functions one should know are rename, select, filter, slice, arrange, and mutate. The first of these we have already looked at in Section 3.2.4. Let us then see some examples of the latter ones. We load the Goldberg2010_data.csv data file we worked with in Chapter 3:

goldbergDat <- read_csv("Goldberg2010_data.csv")
print(goldbergDat)

# A tibble: 356 × 2
   Species                   Status
   <chr>                      <dbl>
 1 Acnistus_arborescens           1
 2 Anisodus_tanguticus            1
 3 Atropa_belladonna              1
 4 Brachistus_stramonifolius      1
 5 Brugmansia_aurea               0
 6 Brugmansia_sanguinea           0
 7 Capsicum_annuum                1
 8 Capsicum_baccatum              1
 9 Capsicum_cardenasii            2
10 Capsicum_chacoense             1
# … with 346 more rows

Now we will give examples of each of the functions select, filter, slice, arrange, and mutate. They are similar to our earlier rename in that the first argument they take is the data, in the form of a tibble. Their other arguments, and what they each do, are explained below.

4.1.1 select

This function chooses columns of the data. The second and subsequent arguments of the function are the columns which should be retained. For example, select(goldbergDat, Species) will keep only the Species column of goldbergDat:

select(goldbergDat, Species)

# A tibble: 356 × 1
   Species                  
   <chr>                    
 1 Acnistus_arborescens     
 2 Anisodus_tanguticus      
 3 Atropa_belladonna        
 4 Brachistus_stramonifolius
 5 Brugmansia_aurea         
 6 Brugmansia_sanguinea     
 7 Capsicum_annuum          
 8 Capsicum_baccatum        
 9 Capsicum_cardenasii      
10 Capsicum_chacoense       
# … with 346 more rows

It is also possible to deselect columns, by prepending a minus sign (-) in front of the column names. To drop the Species column, we can type:

select(goldbergDat, -Species)

# A tibble: 356 × 1
   Status
    <dbl>
 1      1
 2      1
 3      1
 4      1
 5      0
 6      0
 7      1
 8      1
 9      2
10      1
# … with 346 more rows

Since there were only two columns in the data to begin with, only the Status column remained in the data after removing Species.

There are several other options within select, which mostly help with selecting several columns at a time fulfilling certain criteria. The collection of these options and methods is called tidy selection. A few examples follow. First, one can use logical operations to select columns. select(goldbergDat, !Species) means “select all columns that are not Species”. In this case, the only such column is Status:

select(goldbergDat, !Species)

# A tibble: 356 × 1
   Status
    <dbl>
 1      1
 2      1
 3      1
 4      1
 5      0
 6      0
 7      1
 8      1
 9      2
10      1
# … with 346 more rows

One can also specify, as character strings, what the column names should start or end with, using starts_with and ends_with:

select(goldbergDat, starts_with("S"))

# A tibble: 356 × 2
   Species                   Status
   <chr>                      <dbl>
 1 Acnistus_arborescens           1
 2 Anisodus_tanguticus            1
 3 Atropa_belladonna              1
 4 Brachistus_stramonifolius      1
 5 Brugmansia_aurea               0
 6 Brugmansia_sanguinea           0
 7 Capsicum_annuum                1
 8 Capsicum_baccatum              1
 9 Capsicum_cardenasii            2
10 Capsicum_chacoense             1
# … with 346 more rows

select(goldbergDat, starts_with("Sp"))

# A tibble: 356 × 1
   Species                  
   <chr>                    
 1 Acnistus_arborescens     
 2 Anisodus_tanguticus      
 3 Atropa_belladonna        
 4 Brachistus_stramonifolius
 5 Brugmansia_aurea         
 6 Brugmansia_sanguinea     
 7 Capsicum_annuum          
 8 Capsicum_baccatum        
 9 Capsicum_cardenasii      
10 Capsicum_chacoense       
# … with 346 more rows

select(goldbergDat, ends_with("s"))

# A tibble: 356 × 2
   Species                   Status
   <chr>                      <dbl>
 1 Acnistus_arborescens           1
 2 Anisodus_tanguticus            1
 3 Atropa_belladonna              1
 4 Brachistus_stramonifolius      1
 5 Brugmansia_aurea               0
 6 Brugmansia_sanguinea           0
 7 Capsicum_annuum                1
 8 Capsicum_baccatum              1
 9 Capsicum_cardenasii            2
10 Capsicum_chacoense             1
# … with 346 more rows

select(goldbergDat, ends_with("us"))

# A tibble: 356 × 1
   Status
    <dbl>
 1      1
 2      1
 3      1
 4      1
 5      0
 6      0
 7      1
 8      1
 9      2
10      1
# … with 346 more rows

Finally, the function contains can select columns which contain some string anywhere in their names:

select(goldbergDat, contains("tatu"))

# A tibble: 356 × 1
   Status
    <dbl>
 1      1
 2      1
 3      1
 4      1
 5      0
 6      0
 7      1
 8      1
 9      2
10      1
# … with 346 more rows

4.1.2 filter

While select chooses columns, filter chooses rows from the data. As with all these functions, the first argument of filter is the data. The second argument is a logical condition on the columns. Those rows which satisfy the condition are retained; the rest are dropped. Thus, filter keeps only those rows of the data which fulfill some condition.

Recall that in the Goldberg2010_data.csv dataset, a Status of 0 means self-incompatibility; a Status of 1 means self-compatibility, and Status values between 2 and 5 refer to various, more complex selfing mechanisms. So in case we wanted to focus only on those species which exhibit complex selfing, we could filter the data like this:

filter(goldbergDat, Status >= 2)

# A tibble: 44 × 2
   Species               Status
   <chr>                  <dbl>
 1 Capsicum_cardenasii        2
 2 Capsicum_pubescens         2
 3 Dunalia_solanacea          4
 4 Lycium_arenicola           4
 5 Lycium_californicum        3
 6 Lycium_exsertum            4
 7 Lycium_fremontii           4
 8 Lycium_gariepense          4
 9 Lycium_horridum            4
10 Lycium_strandveldense      4
# … with 34 more rows
…
(Note: the numbers in front of the rows in the output generated by tibbles always pertain to the row numbers of the current table, not the one from which they were created. So the row labels 1, 2, and 3 above simply enumerate the rows of the sliced data. The actual rows still correspond to rows 1, 2, and 5 in the original goldbergDat.)

4.1.4 arrange

This function rearranges the rows of the data, in increasing order of the column given as the second argument. For example, to arrange in increasing order of Status, we write:

arrange(goldbergDat, Status)

# A tibble: 356 × 2
   Species                 Status
   <chr>                    <dbl>
 1 Brugmansia_aurea             0
 2 Brugmansia_sanguinea         0
 3 Cuatresia_exiguiflora        0
 4 Cuatresia_riparia            0
 5 Dunalia_brachyacantha        0
 6 Dyssochroma_viridiflora      0
 7 Eriolarynx_lorentzii         0
 8 Grabowskia_duplicata         0
 9 Iochroma_australe            0
10 Iochroma_cyaneum             0
# … with 346 more rows

To arrange in decreasing order, apply the desc function to Status within arrange, like this:

arrange(goldbergDat, desc(Status))

# A tibble: 356 × 2
   Species               Status
   <chr>                  <dbl>
 1 Solanum_wendlandii         5
 2 Dunalia_solanacea          4
 3 Lycium_arenicola           4
 4 Lycium_exsertum            4
 5 Lycium_fremontii           4
 6 Lycium_gariepense          4
 7 Lycium_horridum            4
 8 Lycium_strandveldense      4
 9 Lycium_tetrandrum          4
10 Lycium_villosum            4
# … with 346 more rows

It is also perfectly possible to arrange by a column whose type is character string. In that case, the system will automagically sort the rows in alphabetical order—or reverse alphabetical order, in case desc is applied. For example, to sort in reverse alphabetical order of species binomials:

arrange(goldbergDat, desc(Species))

# A tibble: 356 × 2
   Species                   Status
   <chr>                      <dbl>
 1 Witheringia_solanacea          2
 2 Witheringia_mexicana           0
 3 Witheringia_meiantha           0
 4 Witheringia_macrantha          0
 5 Witheringia_cuneata            0
 6 Witheringia_coccoloboides      0
 7 Withania_somnifera             1
 8 Withania_coagulans             4
 9 Vassobia_breviflora            1
10 Symonanthus_bancroftii         4
# … with 346 more rows

Notice that when we sorted the rows by Status, there are many ties—rows with the same value of Status. In those cases, arrange will not be able to decide which rows should come earlier, and so any ordering that was present before invoking arrange will be retained. In case we would like to break the ties, we can give further sorting variables, as the third, fourth, etc. arguments to arrange. To sort the data by Status, and to resolve ties in alphabetical order of Species, we write:

arrange(goldbergDat, Status, Species)

# A tibble: 356 × 2
   Species                 Status
   <chr>                    <dbl>
 1 Brugmansia_aurea             0
 2 Brugmansia_sanguinea         0
 3 Cuatresia_exiguiflora        0
 4 Cuatresia_riparia            0
 5 Dunalia_brachyacantha        0
 6 Dyssochroma_viridiflora      0
 7 Eriolarynx_lorentzii         0
 8 Grabowskia_duplicata         0
 9 Iochroma_australe            0
10 Iochroma_cyaneum             0
# … with 346 more rows

This causes the table to be sorted primarily by Status, but in case there are ties (equal Status between multiple rows), they will be resolved in priority of alphabetical order—first those starting with “A” (if they exist), then “B”, and so on.

4.1.5 mutate

The mutate function allows us to create new columns from existing ones. We may apply any function or operator we learned about to existing columns, and the result of the computation will go into the new column. We do this in the second argument of mutate (the first, as always, is the data), by first giving a name to the column, then writing =, and then the desired computation. For example, we may find it strange that the selfing status of the species is encoded with a number ranging from 0 to 5, instead of 1 to 6. This is easy to fix however, using mutate:

mutate(goldbergDat, NewStatus = Status + 1)

# A tibble: 356 × 3
   Species                   Status NewStatus
   <chr>                      <dbl>     <dbl>
 1 Acnistus_arborescens           1         2
 2 Anisodus_tanguticus            1         2
 3 Atropa_belladonna              1         2
 4 Brachistus_stramonifolius      1         2
 5 Brugmansia_aurea               0         1
 6 Brugmansia_sanguinea           0         1
 7 Capsicum_annuum                1         2
 8 Capsicum_baccatum              1         2
 9 Capsicum_cardenasii            2         3
10 Capsicum_chacoense             1         2
# … with 346 more rows

The original columns of the data are retained, but we now also have the additional NewStatus column.

Perhaps more interestingly, we could create a new column indicating whether the selfing mechanism of the species is simple (Status either 0 or 1) or complex (Status between 2 and 5). We can do this using an ifelse function within mutate:

mutate(goldbergDat, Selfing = ifelse(Status < 2, "simple", "complex"))

# A tibble: 356 × 3
   Species                   Status Selfing
   <chr>                      <dbl> <chr>  
 1 Acnistus_arborescens           1 simple 
 2 Anisodus_tanguticus            1 simple 
 3 Atropa_belladonna              1 simple 
 4 Brachistus_stramonifolius      1 simple 
 5 Brugmansia_aurea               0 simple 
 6 Brugmansia_sanguinea           0 simple 
 7 Capsicum_annuum                1 simple 
 8 Capsicum_baccatum              1 simple 
 9 Capsicum_cardenasii            2 complex
10 Capsicum_chacoense             1 simple 
# … with 346 more rows

4.2 Using pipes to our advantage

When composing multiple tidyverse functions together, things can get unwieldy quite quickly. Let us take the same data, and create the new column Selfing as above. What happens if we then filter for only those entries with complex selfing mechanism, and finally, we select the column Species only? Here is the solution:

select(
  filter(
    mutate(goldbergDat, Selfing = ifelse(Status < 2, "simple", "complex")),
    Selfing == "complex"
  ),
  Species
)

# A tibble: 44 × 1
   Species              
   <chr>                
 1 Capsicum_cardenasii  
 2 Capsicum_pubescens   
 3 Dunalia_solanacea    
 4 Lycium_arenicola     
 5 Lycium_californicum  
 6 Lycium_exsertum      
 7 Lycium_fremontii     
 8 Lycium_gariepense    
 9 Lycium_horridum      
10 Lycium_strandveldense
# … with 34 more rows

The expression is highly unpleasant: to a human reader, it is not at all obvious what is happening above. To clarify, we have two options. One is to rely on repeated assignment:

mutatedDat <- mutate(goldbergDat,
                     Selfing = ifelse(Status < 2, "simple", "complex"))
filteredDat <- filter(mutatedDat, Selfing == "complex")
onlySpeciesDat <- select(filteredDat, Species)
print(onlySpeciesDat)

# A tibble: 44 × 1
   Species              
   <chr>                
 1 Capsicum_cardenasii  
 2 Capsicum_pubescens   
 3 Dunalia_solanacea    
 4 Lycium_arenicola     
 5 Lycium_californicum  
 6 Lycium_exsertum      
 7 Lycium_fremontii     
 8 Lycium_gariepense    
 9 Lycium_horridum      
10 Lycium_strandveldense
# … with 34 more rows
…
goldbergDat %>%
  mutate(Selfing = ifelse(Status < 2, "simple", "complex")) %>%
  filter(Selfing == "complex") %>%
  select(Species)

Again, the pipe %>% should be pronounced then. We take the data, then we mutate it, then we filter for complex selfing, and then we select one of the columns. In performing these steps, each function both receives and returns data. Thus, by starting out with the original goldbergDat, we no longer need to write out the data argument of the functions explicitly. Instead, the pipe takes care of that automatically for us, making the functions receive as their first input argument the piped-in data, and in turn producing transformed data as their output—which becomes the input for the next function in line.

In fact, there is technically no need to even assign goldbergDat. The pipe can just as well start with read_csv to import the dataset:

read_csv("Goldberg2010_data.csv") %>%
  mutate(Selfing = ifelse(Status < 2, "simple", "complex")) %>%
  filter(Selfing == "complex") %>%
  select(Species)

# A tibble: 44 × 1
   Species              
   <chr>                
 1 Capsicum_cardenasii  
 2 Capsicum_pubescens   
 3 Dunalia_solanacea    
 4 Lycium_arenicola     
 5 Lycium_californicum  
 6 Lycium_exsertum      
 7 Lycium_fremontii     
 8 Lycium_gariepense    
 9 Lycium_horridum      
10 Lycium_strandveldense
# … with 34 more rows
…
