Introduction to data analysis and visualization with R - 7 Creating publication-grade figures
…
In science, we want clear and informative plots. Each figure should make it obvious what data you are plotting, what the axes, colors, shapes, and size differences represent, and the overall message the figure is conveying. When writing a scientific paper or report, remember that your future readers are busy people. They often do not have the time to delve into the subtleties of overly refined verbal arguments. Instead, they will most often look for the figures to learn what your work is about. You will want to create figures which makes this possible for them to do.

Here we will learn how to create accessible, publication-quality scientific graphs in a simple way. We do this using the R package ggplot2 which is a standard part of the tidyverse. The ggplot2 package follows a very special philosophy for creating figures that was originally proposed by Leland Wilkinson (2006). The essence of this view is that, just like the grammar of sentences, graphs have fixed “grammatical” components whose specification defines the plot. The grand idea is that the data ought not be changed in order to display it in different formats. For instance, the same data should be possible to represent either as a box plot, or as a histogram, without changing their format.

This last claim needs to be qualified somewhat. It is more accurate to say that one should not need to change the data as long as they are in tidy format. As a reminder, “tidy data” means that every variable is in its own column, and every observation is in its own row (Section 6.2). In case the data are not tidy, one should first wrangle them into such form, for example by using pivot_longer. While this step is not always required (especially for simpler graphs), it can be very useful to tidy the data before analyzing and plotting them when working with larger, more complex datasets.

7.2 Basic ggplot2 usage

To see how ggplot2 works, let us load tidyverse, and then use the built-in iris dataset to create some figures. As a reminder, here is what the data look like:

library(tidyverse)
as_tibble(iris)

# A tibble: 150 × 5
   Sepal.Length Sepal.Width Petal.Length Petal.Width Species
          <dbl>       <dbl>        <dbl>       <dbl> <fct>  
 1          5.1         3.5          1.4         0.2 setosa 
 2          4.9         3            1.4         0.2 setosa 
 3          4.7         3.2          1.3         0.2 setosa 
 4          4.6         3.1          1.5         0.2 setosa 
 5          5           3.6          1.4         0.2 setosa 
 6          5.4         3.9          1.7         0.4 setosa 
 7          4.6         3.4          1.4         0.3 setosa 
 8          5           3.4          1.5         0.2 setosa 
 9          4.4         2.9          1.4         0.2 setosa 
10          4.9         3.1          1.5         0.1 setosa 
# … with 140 more rows
…
