Introduction to data analysis and visualization with R - 3 Reading tabular data from disk
…
And so on. As you can see, the first line (Species,Status) is actually an indicator of what the corresponding columns of data will contain: the first column has the species name, and the second one the numerical flag indicating self-compatibility status. The subsequent rows hold the actual data. Notice that the boundary between the columns is always indicated by a comma. This is what gave rise to the name “comma-separated value” (CSV) file.

The above raw format is not yet amenable to processing within R. To make it so, we first need to import the data. For comma-separated value files, there is a convenient function, read_csv, that makes this especially simple:1

read_csv("Goldberg2010_data.csv")

# A tibble: 356 × 2
   Species                   Status
   <chr>                      <dbl>
 1 Acnistus_arborescens           1
 2 Anisodus_tanguticus            1
 3 Atropa_belladonna              1
 4 Brachistus_stramonifolius      1
 5 Brugmansia_aurea               0
 6 Brugmansia_sanguinea           0
 7 Capsicum_annuum                1
 8 Capsicum_baccatum              1
 9 Capsicum_cardenasii            2
10 Capsicum_chacoense             1
# … with 346 more rows
…
Here goldbergDat$Status is really just a vector, and can be treated as such. For example, to get the 9th entry of this vector, we can use the usual bracket notation:

goldbergDat$Status[9]

[1] 2

The result is an ordinary numerical value.

Finally, let us take one more look at the output again:

print(goldbergDat)

# A tibble: 356 × 2
   Species                   Status
   <chr>                      <dbl>
 1 Acnistus_arborescens           1
 2 Anisodus_tanguticus            1
 3 Atropa_belladonna              1
 4 Brachistus_stramonifolius      1
 5 Brugmansia_aurea               0
 6 Brugmansia_sanguinea           0
 7 Capsicum_annuum                1
 8 Capsicum_baccatum              1
 9 Capsicum_cardenasii            2
10 Capsicum_chacoense             1
# … with 346 more rows
…
Warning: One or more parsing issues, call `problems()` on your data frame for details,
e.g.:
  dat <- vroom(...)
  problems(dat)

Rows: 5730 Columns: 1
── Column specification ────────────────────────────────────────────────────────
Delimiter: ","
chr (1): AF extant  Artiodactyla    Bovidae Addax   nasomaculatus   4.85    70000.3 60

ℹ Use `spec()` to retrieve the full column specification for this data.
ℹ Specify the column types or set `show_col_types = FALSE` to quiet this message.

# A tibble: 5,730 × 1
   `AF\textant\tArtiodactyla\tBovidae\tAddax\tnasomaculatus\t4.85\t70000.3\t60` 
   <chr>                                                                        
 1 "AF\textant\tArtiodactyla\tBovidae\tAepyceros\tmelampus\t4.72\t52500.1\t\"63…
 2 "AF\textant\tArtiodactyla\tBovidae\tAlcelaphus\tbuselaphus\t5.23\t171001.5\t…
 3 "AF\textant\tArtiodactyla\tBovidae\tAmmodorcas\tclarkei\t4.45\t28049.8\t60"  
 4 "AF\textant\tArtiodactyla\tBovidae\tAmmotragus\tlervia\t4.68\t48000\t75"     
 5 "AF\textant\tArtiodactyla\tBovidae\tAntidorcas\tmarsupialis\t4.59\t39049.9\t…
 6 "AF\textinct\tArtiodactyla\tBovidae\tAntidorcas\tbondi\t4.53\t34000\t1"      
 7 "AF\textinct\tArtiodactyla\tBovidae\tAntidorcas\taustralis\t4.6\t40000\t2"   
 8 "AF\textant\tArtiodactyla\tBovidae\tBos\ttaurus\t5.95\t900000\t-999"         
 9 "AF\textant\tArtiodactyla\tBovidae\tCapra\twalie\t5\t100000\t-999"           
10 "AF\textant\tArtiodactyla\tBovidae\tCapra\tibex\t5\t100999.7\t65"            
# … with 5,720 more rows

As you can see, there is even a warning at the top about “One or more parsing issues”, meaning that read_csv had a hard time reading in the file. Below the message, you can also see that the attempted read is a mess, with all data in the rows treated as being part of a single column.

Instead, to correctly read TSV files, one should use read_tsv:

read_tsv("Smith2003_data.txt")

# A tibble: 5,730 × 9
   AF    extant  Artiodactyla Bovidae Addax      nasomacu…¹ `4.85` 70000…² `60` 
   <chr> <chr>   <chr>        <chr>   <chr>      <chr>       <dbl>   <dbl> <chr>
 1 AF    extant  Artiodactyla Bovidae Aepyceros  melampus     4.72  52500. 63, …
 2 AF    extant  Artiodactyla Bovidae Alcelaphus buselaphus   5.23 171002. 63, …
 3 AF    extant  Artiodactyla Bovidae Ammodorcas clarkei      4.45  28050. 60   
 4 AF    extant  Artiodactyla Bovidae Ammotragus lervia       4.68  48000  75   
 5 AF    extant  Artiodactyla Bovidae Antidorcas marsupial…   4.59  39050. 60   
 6 AF    extinct Artiodactyla Bovidae Antidorcas bondi        4.53  34000  1    
 7 AF    extinct Artiodactyla Bovidae Antidorcas australis    4.6   40000  2    
 8 AF    extant  Artiodactyla Bovidae Bos        taurus       5.95 900000  -999 
 9 AF    extant  Artiodactyla Bovidae Capra      walie        5    100000  -999 
10 AF    extant  Artiodactyla Bovidae Capra      ibex         5    101000. 65   
# … with 5,720 more rows, and abbreviated variable names ¹​nasomaculatus,
#   ²​`70000.3`

This is now a neatly formatted table, with 9 columns as needed.

There is a problem though. This file does not contain a header—a row, which is the first in a data file, specifying the names of the various columns. (Recall that the first row of Goldberg2010_data.csv contained not data, but the names of the columns.) Instead, the first row is itself part of the data. To override the default behavior of treating the first row as one of column names, one can use the col_names = FALSE option:

read_tsv("Smith2003_data.txt", col_names = FALSE)

# A tibble: 5,731 × 9
   X1    X2      X3           X4      X5         X6              X7     X8 X9   
   <chr> <chr>   <chr>        <chr>   <chr>      <chr>        <dbl>  <dbl> <chr>
 1 AF    extant  Artiodactyla Bovidae Addax      nasomaculat…  4.85 7.00e4 60   
 2 AF    extant  Artiodactyla Bovidae Aepyceros  melampus      4.72 5.25e4 63, …
 3 AF    extant  Artiodactyla Bovidae Alcelaphus buselaphus    5.23 1.71e5 63, …
 4 AF    extant  Artiodactyla Bovidae Ammodorcas clarkei       4.45 2.80e4 60   
 5 AF    extant  Artiodactyla Bovidae Ammotragus lervia        4.68 4.8 e4 75   
 6 AF    extant  Artiodactyla Bovidae Antidorcas marsupialis   4.59 3.90e4 60   
 7 AF    extinct Artiodactyla Bovidae Antidorcas bondi         4.53 3.4 e4 1    
 8 AF    extinct Artiodactyla Bovidae Antidorcas australis     4.6  4   e4 2    
 9 AF    extant  Artiodactyla Bovidae Bos        taurus        5.95 9   e5 -999 
10 AF    extant  Artiodactyla Bovidae Capra      walie         5    1   e5 -999 
# … with 5,721 more rows

The col_names argument is set by default to TRUE; in case we wish to override this, we must explicitly change it, just like above.

3.2.4 Renaming columns

While the above works, the column names now default to the moderately informative labels X1, X2, … Fortunately, columns can be renamed using the rename function from the tidyverse. This function takes a tibble as its first argument, and a renaming instruction as its second, of the form new_name = old_name. For example, to rename the first column (which, as you may remember, refers to the continent of the corresponding mammal):

smithData <- read_tsv("Smith2003_data.txt", col_names = FALSE)
rename(smithData, Continent = X1) # Rename column "X1" to "Continent"

# A tibble: 5,731 × 9
   Continent X2      X3           X4      X5         X6          X7     X8 X9   
   <chr>     <chr>   <chr>        <chr>   <chr>      <chr>    <dbl>  <dbl> <chr>
 1 AF        extant  Artiodactyla Bovidae Addax      nasomac…  4.85 7.00e4 60   
 2 AF        extant  Artiodactyla Bovidae Aepyceros  melampus  4.72 5.25e4 63, …
 3 AF        extant  Artiodactyla Bovidae Alcelaphus buselap…  5.23 1.71e5 63, …
 4 AF        extant  Artiodactyla Bovidae Ammodorcas clarkei   4.45 2.80e4 60   
 5 AF        extant  Artiodactyla Bovidae Ammotragus lervia    4.68 4.8 e4 75   
 6 AF        extant  Artiodactyla Bovidae Antidorcas marsupi…  4.59 3.90e4 60   
 7 AF        extinct Artiodactyla Bovidae Antidorcas bondi     4.53 3.4 e4 1    
 8 AF        extinct Artiodactyla Bovidae Antidorcas austral…  4.6  4   e4 2    
 9 AF        extant  Artiodactyla Bovidae Bos        taurus    5.95 9   e5 -999 
10 AF        extant  Artiodactyla Bovidae Capra      walie     5    1   e5 -999 
# … with 5,721 more rows

As seen, the name of the first column now reads Continent instead of X1. One can similarly rename other columns as well. To rename the first two columns:

rename(smithData, Continent = X1, Status = X2)

# A tibble: 5,731 × 9
   Continent Status  X3           X4      X5         X6          X7     X8 X9   
   <chr>     <chr>   <chr>        <chr>   <chr>      <chr>    <dbl>  <dbl> <chr>
 1 AF        extant  Artiodactyla Bovidae Addax      nasomac…  4.85 7.00e4 60   
 2 AF        extant  Artiodactyla Bovidae Aepyceros  melampus  4.72 5.25e4 63, …
 3 AF        extant  Artiodactyla Bovidae Alcelaphus buselap…  5.23 1.71e5 63, …
 4 AF        extant  Artiodactyla Bovidae Ammodorcas clarkei   4.45 2.80e4 60   
 5 AF        extant  Artiodactyla Bovidae Ammotragus lervia    4.68 4.8 e4 75   
 6 AF        extant  Artiodactyla Bovidae Antidorcas marsupi…  4.59 3.90e4 60   
 7 AF        extinct Artiodactyla Bovidae Antidorcas bondi     4.53 3.4 e4 1    
 8 AF        extinct Artiodactyla Bovidae Antidorcas austral…  4.6  4   e4 2    
 9 AF        extant  Artiodactyla Bovidae Bos        taurus    5.95 9   e5 -999 
10 AF        extant  Artiodactyla Bovidae Capra      walie     5    1   e5 -999 
# … with 5,721 more rows

And so on.

3.2.5 Excel tables

Although their use is discouraged in science, one should know how to read in data from an Excel spreadsheet. To do this, one needs to load the readxl package. This package is part of the tidyverse, but does not get automatically loaded when running library(tidyverse). Therefore, we first load the package:

library(readxl)

We can now load Excel files with the function read_excel(). At the start, we downloaded an Excel version of the data from Goldberg et al. (2010), called Goldberg2010_data.xlsx. It holds the exact same data as the original CSV file, just saved in Excel format for instructive purposes. Let us load this file:

read_excel("Goldberg2010_data.xlsx")

# A tibble: 356 × 2
   Species                   Status
   <chr>                      <dbl>
 1 Acnistus_arborescens           1
 2 Anisodus_tanguticus            1
 3 Atropa_belladonna              1
 4 Brachistus_stramonifolius      1
 5 Brugmansia_aurea               0
 6 Brugmansia_sanguinea           0
 7 Capsicum_annuum                1
 8 Capsicum_baccatum              1
 9 Capsicum_cardenasii            2
10 Capsicum_chacoense             1
# … with 346 more rows
…
