Introduction to data analysis and visualization with R - 7 Some further plotting options
…
In this particular case, the above graph is preferable to the previous one, because the three subplots now share the same x-axis. This makes it easier to compare the distribution of petal lengths across the species.

To illustrate how to make a two-dimensional grid of facets, let us normalize the iris dataset using pivot_longer():

as_tibble(iris) %>%
  pivot_longer(cols = c(Sepal.Length, Sepal.Width, Petal.Length, Petal.Width),
               names_to = "Trait",
               values_to = "Measurement")

# A tibble: 600 × 3
   Species Trait        Measurement
   <fct>   <chr>              <dbl>
 1 setosa  Sepal.Length         5.1
 2 setosa  Sepal.Width          3.5
 3 setosa  Petal.Length         1.4
 4 setosa  Petal.Width          0.2
 5 setosa  Sepal.Length         4.9
 6 setosa  Sepal.Width          3  
 7 setosa  Petal.Length         1.4
 8 setosa  Petal.Width          0.2
 9 setosa  Sepal.Length         4.7
10 setosa  Sepal.Width          3.2
# … with 590 more rows
…
