Introduction to data analysis and visualization with R - 12 Simple linear regression
…
12  Simple linear regression

Linear regression was invented by Sir Francis Galton (half-cousin to Charles Darwin), in relation to a very specific problem. He was studying the relationship between the body heights of humans and their children. We can follow his lead and download a dataset which is similar to the one used by Sir Francis, but was in fact gathered by Karl Pearson in 1903 (the fact that the dataset strictly focuses on fathers and their sons, excluding mothers and daughters, contributes an extra air of historical authenticity to the analysis):

library(tidyverse)

heights <- read_tsv("Pearson.tsv")
print(heights)

# A tibble: 1,078 × 2
   Father   Son
    <dbl> <dbl>
 1   65    59.8
 2   63.3  63.2
 3   65    63.3
 4   65.8  62.8
 5   61.1  64.3
 6   63    64.2
 7   65.4  64.1
 8   64.7  64  
 9   66.1  64.6
10   67    64  
# … with 1,068 more rows
…
These are actually four datasets merged into one: x1 and y1 are x and y coordinates of the points from the first set, x1 and y2 from the second set, and so on. We can use pivot_longer to normalize these data:

ans_long <- anscombe %>%
  pivot_longer(cols = everything(), names_to = c(".value", "set"),
               names_pattern = "(.)(.)")
print(ans_long)

# A tibble: 44 × 3
   set       x     y
   <chr> <dbl> <dbl>
 1 1        10  8.04
 2 2        10  9.14
 3 3        10  7.46
 4 4         8  6.58
 5 1         8  6.95
 6 2         8  8.14
 7 3         8  6.77
 8 4         8  5.76
 9 1        13  7.58
10 2        13  8.74
# … with 34 more rows
…
